{
  "total_entries": 561,
  "per_page": 15,
  "page": 1,
  "total_pages": 38,
  "entries": [
    {
      "product_id": 4,
      "line_id": 1,
      "name": "End Panel, Cope and Stick, .79\" thick",
      "uses_groups": 1,
      "formula": "((((((width*height/144)*wood_type.wood_price)*(1+wood_type.waste_yield ))*1.05)   +   \r\n((left_stile_width-2.5)*.50)     +                       \r\n((right_stile_width-2.5)*.50)     +                      \r\n((top_rail_width-2.5)*.50)     +                          \r\n((bottom_rail_width-2.5)*.50)     +                    \r\ndoor_style.door_style_upcharge     +  \r\npanel_profiles.Panel_Upcharge     +                  \r\nvariable_width_stile_and_rail.Price_upcharge     +                               \r\nedges.edge_upcharge     +                                   \r\n_panels_tall.panel_tall_upcharge     +                   \r\n_panels_wide.price_upcharge_panels_wide     +    \r\npanel_face_style.Price_adjustment)           \r\n* 1.2)    \r\n",
      "formula_pieces": null,
      "price_precision": 2,
      "minimum_price": null,
      "default_qty": null,
      "qty_label": "Qty",
      "validations": null,
      "sums": null,
      "shipping_template": null,
      "weight": null,
      "weight_pieces": null,
      "default_image": 55,
      "image_position": "middle",
      "priority_sort": 0,
      "attribute_sort_order": null,
      "repeat_headers": 0,
      "help": null,
      "export_class": null,
      "company_exclusive": null,
      "include_in_designer": 1,
      "allow_b2b": 1,
      "sub_id": null,
      "status": 2,
      "timestamp": "2021-10-08T09:47:57",
      "createdby": null,
      "createdbyid": null,
      "createddate": null,
      "updatedby": null,
      "updatedbyid": null,
      "updateddate": null,
      "production_line_name": "Doors "
    },
    {
      "product_id": 8,
      "line_id": 1,
      "name": "Slab Door",
      "uses_groups": 1,
      "formula": "((((((width*height/144)*wood_type.wood_price)*(1+wood_type.waste_yield ))*1.05)   +     edges.edge_upcharge     +     panel_face_style.Price_adjustment)     * 1.2)     +     10",
      "formula_pieces": null,
      "price_precision": 2,
      "minimum_price": null,
      "default_qty": null,
      "qty_label": "Qty",
      "validations": null,
      "sums": null,
      "shipping_template": null,
      "weight": null,
      "weight_pieces": null,
      "default_image": 82,
      "image_position": "middle",
      "priority_sort": 7,
      "attribute_sort_order": null,
      "repeat_headers": 0,
      "help": null,
      "export_class": null,
      "company_exclusive": null,
      "include_in_designer": 1,
      "allow_b2b": 1,
      "sub_id": null,
      "status": 2,
      "timestamp": "2021-10-08T09:47:57",
      "createdby": null,
      "createdbyid": null,
      "createddate": null,
      "updatedby": null,
      "updatedbyid": null,
      "updateddate": null,
      "production_line_name": "Doors "
    },
    {
      "product_id": 9,
      "line_id": 1,
      "name": "Thermo Wrap Doors",
      "uses_groups": 1,
      "formula": "1",
      "formula_pieces": null,
      "price_precision": 2,
      "minimum_price": null,
      "default_qty": null,
      "qty_label": "Qty",
      "validations": null,
      "sums": null,
      "shipping_template": null,
      "weight": null,
      "weight_pieces": null,
      "default_image": null,
      "image_position": "middle",
      "priority_sort": 0,
      "attribute_sort_order": null,
      "repeat_headers": 0,
      "help": null,
      "export_class": null,
      "company_exclusive": null,
      "include_in_designer": 1,
      "allow_b2b": 1,
      "sub_id": null,
      "status": 2,
      "timestamp": "2021-10-08T09:47:57",
      "createdby": null,
      "createdbyid": null,
      "createddate": null,
      "updatedby": null,
      "updatedbyid": null,
      "updateddate": null,
      "production_line_name": "Doors "
    },
    {
      "product_id": 14,
      "line_id": 1,
      "name": "Arched Valance",
      "uses_groups": 1,
      "formula": "(((((((width*height/144)*1.5)*wood_type.wood_price)*(1+wood_type.waste_yield))*1.3)    +     ((left_stile_width-2.5)*.50)     +         ((right_stile_width-2.5)*.50)     +         ((top_rail_width-2.5)*.50)     +                ((bottom_rail_width-2.5)*.50)     +      door_style.door_style_upcharge     +    panel_profiles.Panel_Upcharge     +     variable_width_stile_and_rail.Price_upcharge     +         edges.edge_upcharge     +            _panels_tall.panel_tall_upcharge     +         _panels_wide.price_upcharge_panels_wide     +    panel_face_style.Price_adjustment)           * 1.2)    ",
      "formula_pieces": null,
      "price_precision": 2,
      "minimum_price": null,
      "default_qty": null,
      "qty_label": "Qty",
      "validations": null,
      "sums": null,
      "shipping_template": null,
      "weight": null,
      "weight_pieces": null,
      "default_image": 26,
      "image_position": "middle",
      "priority_sort": 60,
      "attribute_sort_order": null,
      "repeat_headers": 0,
      "help": null,
      "export_class": null,
      "company_exclusive": null,
      "include_in_designer": 1,
      "allow_b2b": 1,
      "sub_id": null,
      "status": 2,
      "timestamp": "2021-10-08T09:47:57",
      "createdby": null,
      "createdbyid": null,
      "createddate": null,
      "updatedby": null,
      "updatedbyid": null,
      "updateddate": null,
      "production_line_name": "Doors "
    },
    {
      "product_id": 16,
      "line_id": 1,
      "name": "Thermo Wrap Doors",
      "uses_groups": 1,
      "formula": "1",
      "formula_pieces": null,
      "price_precision": 2,
      "minimum_price": null,
      "default_qty": null,
      "qty_label": "Qty",
      "validations": null,
      "sums": null,
      "shipping_template": null,
      "weight": null,
      "weight_pieces": null,
      "default_image": null,
      "image_position": "middle",
      "priority_sort": 0,
      "attribute_sort_order": null,
      "repeat_headers": 0,
      "help": null,
      "export_class": null,
      "company_exclusive": null,
      "include_in_designer": 1,
      "allow_b2b": 1,
      "sub_id": null,
      "status": 2,
      "timestamp": "2021-10-08T09:47:57",
      "createdby": null,
      "createdbyid": null,
      "createddate": null,
      "updatedby": null,
      "updatedbyid": null,
      "updateddate": null,
      "production_line_name": "Doors "
    },
    {
      "product_id": 17,
      "line_id": 1,
      "name": "Side 4 Sides, lumber, .79\" thick",
      "uses_groups": 1,
      "formula": "((((width*(stick_lengths*12))/144)*(1+wood_type.waste_yield))*(wood_type.wood_price)+1.50)*1.30",
      "formula_pieces": null,
      "price_precision": 2,
      "minimum_price": null,
      "default_qty": null,
      "qty_label": "Qty",
      "validations": null,
      "sums": null,
      "shipping_template": null,
      "weight": null,
      "weight_pieces": null,
      "default_image": null,
      "image_position": "middle",
      "priority_sort": 0,
      "attribute_sort_order": null,
      "repeat_headers": 0,
      "help": null,
      "export_class": null,
      "company_exclusive": null,
      "include_in_designer": 1,
      "allow_b2b": 1,
      "sub_id": null,
      "status": 2,
      "timestamp": "2021-10-08T09:47:57",
      "createdby": null,
      "createdbyid": null,
      "createddate": null,
      "updatedby": null,
      "updatedbyid": null,
      "updateddate": null,
      "production_line_name": "Doors "
    },
    {
      "product_id": 18,
      "line_id": 1,
      "name": "Facing",
      "uses_groups": 0,
      "formula": "1",
      "formula_pieces": null,
      "price_precision": 2,
      "minimum_price": null,
      "default_qty": null,
      "qty_label": "Qty",
      "validations": null,
      "sums": null,
      "shipping_template": null,
      "weight": null,
      "weight_pieces": null,
      "default_image": 36,
      "image_position": "middle",
      "priority_sort": 10,
      "attribute_sort_order": null,
      "repeat_headers": 0,
      "help": null,
      "export_class": null,
      "company_exclusive": null,
      "include_in_designer": 1,
      "allow_b2b": 1,
      "sub_id": null,
      "status": 2,
      "timestamp": "2021-10-08T09:47:57",
      "createdby": null,
      "createdbyid": null,
      "createddate": null,
      "updatedby": null,
      "updatedbyid": null,
      "updateddate": null,
      "production_line_name": "Doors "
    },
    {
      "product_id": 19,
      "line_id": 1,
      "name": "Molding",
      "uses_groups": 1,
      "formula": "1",
      "formula_pieces": null,
      "price_precision": 2,
      "minimum_price": null,
      "default_qty": null,
      "qty_label": "Qty",
      "validations": null,
      "sums": null,
      "shipping_template": null,
      "weight": null,
      "weight_pieces": null,
      "default_image": null,
      "image_position": "middle",
      "priority_sort": 40,
      "attribute_sort_order": null,
      "repeat_headers": 0,
      "help": null,
      "export_class": null,
      "company_exclusive": null,
      "include_in_designer": 1,
      "allow_b2b": 1,
      "sub_id": null,
      "status": 2,
      "timestamp": "2021-10-08T09:47:57",
      "createdby": null,
      "createdbyid": null,
      "createddate": null,
      "updatedby": null,
      "updatedbyid": null,
      "updateddate": null,
      "production_line_name": "Doors "
    },
    {
      "product_id": 21,
      "line_id": 1,
      "name": "Cope and Stick Door, Single Panel ",
      "uses_groups": 1,
      "formula": "26.50\r\n\r\nwood_type.wood_price   +\r\n\r\ndoor_style.door_style_upcharge     +    \r\n\r\npanel_profiles.Panel_Upcharge     +     \r\n\r\nvariable_width_stile_and_rail.Price_upcharge     +        \r\n\r\n_panels_tall.panel_tall_upcharge     +       \r\n\r\n _panels_wide.price_upcharge_panels_wide     +   \r\n\r\npanel_face_style.Price_adjustment) * 1.2)    +\r\n\r\n((left_stile_width-2.5)*.50)     +   \r\n\r\n((right_stile_width-2.5)*.50)     +         \r\n\r\n((top_rail_width-2.5)*.50)     +                \r\n\r\n((bottom_rail_width-2.5)*.50)     +     ",
      "formula_pieces": null,
      "price_precision": 2,
      "minimum_price": null,
      "default_qty": null,
      "qty_label": "Qty",
      "validations": null,
      "sums": null,
      "shipping_template": null,
      "weight": null,
      "weight_pieces": null,
      "default_image": 92,
      "image_position": "middle",
      "priority_sort": 10,
      "attribute_sort_order": null,
      "repeat_headers": 0,
      "help": null,
      "export_class": null,
      "company_exclusive": null,
      "include_in_designer": 1,
      "allow_b2b": 1,
      "sub_id": null,
      "status": 2,
      "timestamp": "2021-10-08T09:47:57",
      "createdby": null,
      "createdbyid": null,
      "createddate": null,
      "updatedby": null,
      "updatedbyid": null,
      "updateddate": null,
      "production_line_name": "Doors "
    },
    {
      "product_id": 22,
      "line_id": 1,
      "name": "Breadboard",
      "uses_groups": 1,
      "formula": "1",
      "formula_pieces": null,
      "price_precision": 2,
      "minimum_price": null,
      "default_qty": null,
      "qty_label": "Qty",
      "validations": null,
      "sums": null,
      "shipping_template": null,
      "weight": null,
      "weight_pieces": null,
      "default_image": null,
      "image_position": "middle",
      "priority_sort": 10,
      "attribute_sort_order": null,
      "repeat_headers": 0,
      "help": null,
      "export_class": null,
      "company_exclusive": null,
      "include_in_designer": 1,
      "allow_b2b": 1,
      "sub_id": null,
      "status": 2,
      "timestamp": "2021-10-08T09:47:57",
      "createdby": null,
      "createdbyid": null,
      "createddate": null,
      "updatedby": null,
      "updatedbyid": null,
      "updateddate": null,
      "production_line_name": "Doors "
    },
    {
      "product_id": 25,
      "line_id": 1,
      "name": "Miter (Variable Width)",
      "uses_groups": 1,
      "formula": "((((((width*height/144)*wood_type_6_4.Wood_Price)*(1+wood_type_6_4.Waste_Yield ))*1.05)   +   ((left_stile_width-2.5)*.50)     +      ((right_stile_width-2.5)*.50)     +   ((top_rail_width-2.5)*.50)     +      ((bottom_rail_width-2.5)*.50)     +       panel_profiles.Panel_Upcharge     +      variable_width_stile_and_rail.Price_upcharge     +                               \r\nedges.edge_upcharge     +     panel_face_style.Price_adjustment)       * 1.2)\r\n",
      "formula_pieces": null,
      "price_precision": 2,
      "minimum_price": null,
      "default_qty": null,
      "qty_label": "Qty",
      "validations": null,
      "sums": null,
      "shipping_template": null,
      "weight": null,
      "weight_pieces": null,
      "default_image": 81,
      "image_position": "middle",
      "priority_sort": 8,
      "attribute_sort_order": null,
      "repeat_headers": 0,
      "help": null,
      "export_class": null,
      "company_exclusive": null,
      "include_in_designer": 1,
      "allow_b2b": 1,
      "sub_id": null,
      "status": 2,
      "timestamp": "2021-10-08T09:47:57",
      "createdby": null,
      "createdbyid": null,
      "createddate": null,
      "updatedby": null,
      "updatedbyid": null,
      "updateddate": null,
      "production_line_name": "Doors "
    },
    {
      "product_id": 28,
      "line_id": 1,
      "name": "Miter (Fixed Width)",
      "uses_groups": 1,
      "formula": "((((((width*height/144)*wood_type_6_4.Wood_Price)*(1+wood_type_6_4.Waste_Yield ))*1.05)   +   panel_profiles.Panel_Upcharge     +      stile_rail.stile_upcharge     +            panel_face_style.Price_adjustment)           * 1.2)    \r\n",
      "formula_pieces": null,
      "price_precision": 2,
      "minimum_price": null,
      "default_qty": null,
      "qty_label": "Qty",
      "validations": null,
      "sums": null,
      "shipping_template": null,
      "weight": null,
      "weight_pieces": null,
      "default_image": 93,
      "image_position": "middle",
      "priority_sort": 9,
      "attribute_sort_order": null,
      "repeat_headers": 0,
      "help": null,
      "export_class": null,
      "company_exclusive": null,
      "include_in_designer": 1,
      "allow_b2b": 1,
      "sub_id": null,
      "status": 2,
      "timestamp": "2021-10-08T09:47:57",
      "createdby": null,
      "createdbyid": null,
      "createddate": null,
      "updatedby": null,
      "updatedbyid": null,
      "updateddate": null,
      "production_line_name": "Doors "
    },
    {
      "product_id": 32,
      "line_id": 1,
      "name": "Cope and Stick Drawer Front (5 Piece)",
      "uses_groups": 1,
      "formula": "(((((((width*height/144)*1.2)*wood_type.wood_price)*(1+wood_type.waste_yield))*1.2)    +     ((left_stile_width-2.5)*.50)     +         ((right_stile_width-2.5)*.50)     +         ((top_rail_width-2.5)*.50)     +                ((bottom_rail_width-2.5)*.50)     +      door_style.door_style_upcharge     +    panel_profiles.Panel_Upcharge     +     variable_width_stile_and_rail.Price_upcharge     +         edges.edge_upcharge     +            _panels_tall.panel_tall_upcharge     +         _panels_wide.price_upcharge_panels_wide     +    panel_face_style.Price_adjustment)           * 1.2)    ",
      "formula_pieces": null,
      "price_precision": 2,
      "minimum_price": null,
      "default_qty": null,
      "qty_label": "Qty",
      "validations": null,
      "sums": null,
      "shipping_template": null,
      "weight": null,
      "weight_pieces": null,
      "default_image": 99,
      "image_position": "middle",
      "priority_sort": 90,
      "attribute_sort_order": null,
      "repeat_headers": 0,
      "help": null,
      "export_class": null,
      "company_exclusive": null,
      "include_in_designer": 1,
      "allow_b2b": 1,
      "sub_id": null,
      "status": 2,
      "timestamp": "2021-10-08T09:47:57",
      "createdby": null,
      "createdbyid": null,
      "createddate": null,
      "updatedby": null,
      "updatedbyid": null,
      "updateddate": null,
      "production_line_name": "Doors "
    },
    {
      "product_id": 33,
      "line_id": 1,
      "name": "Slab Drawer Front",
      "uses_groups": 1,
      "formula": "((((((width*height/144)*wood_type.wood_price)*(1+wood_type.waste_yield ))*1.05)   +     edges.edge_upcharge     +     panel_face_style.Price_adjustment)     * 1.2)     +     10",
      "formula_pieces": null,
      "price_precision": 2,
      "minimum_price": null,
      "default_qty": null,
      "qty_label": "Qty",
      "validations": null,
      "sums": null,
      "shipping_template": null,
      "weight": null,
      "weight_pieces": null,
      "default_image": 100,
      "image_position": "middle",
      "priority_sort": 10,
      "attribute_sort_order": null,
      "repeat_headers": 0,
      "help": null,
      "export_class": null,
      "company_exclusive": null,
      "include_in_designer": 1,
      "allow_b2b": 1,
      "sub_id": null,
      "status": 2,
      "timestamp": "2021-10-08T09:47:57",
      "createdby": null,
      "createdbyid": null,
      "createddate": null,
      "updatedby": null,
      "updatedbyid": null,
      "updateddate": null,
      "production_line_name": "Doors "
    },
    {
      "product_id": 34,
      "line_id": 1,
      "name": "Miter Drawer Front (Fixed Width)",
      "uses_groups": 1,
      "formula": "((((((width*height/144)*wood_type.wood_price)*(1+wood_type.waste_yield ))*1.05)   +   panel_profiles.Panel_Upcharge     +      stile_rail.stile_upcharge     +            panel_face_style.Price_adjustment)           * 1.2)    \r\n",
      "formula_pieces": null,
      "price_precision": 2,
      "minimum_price": null,
      "default_qty": null,
      "qty_label": "Qty",
      "validations": null,
      "sums": null,
      "shipping_template": null,
      "weight": null,
      "weight_pieces": null,
      "default_image": 104,
      "image_position": "middle",
      "priority_sort": 80,
      "attribute_sort_order": null,
      "repeat_headers": 0,
      "help": null,
      "export_class": null,
      "company_exclusive": null,
      "include_in_designer": 1,
      "allow_b2b": 1,
      "sub_id": null,
      "status": 2,
      "timestamp": "2021-10-08T09:47:57",
      "createdby": null,
      "createdbyid": null,
      "createddate": null,
      "updatedby": null,
      "updatedbyid": null,
      "updateddate": null,
      "production_line_name": "Doors "
    }
  ]
}
